                            
/* TEAM */
Administrador: Jorge Bneyto Castelló.                          
Site: jorbencas@gmail.com, enlace a formulario de contacto,...        
Twitter: @jorbencas.                     
Location: Ontinyent, Valencia, Espanya.			
							
/* THANKS */						
Name: jomuoru
                     
/* SITE */                       
Last update: 2017/10/24                        
Standards: HTML5, CSS3,..            
Components: Modernizr, jQuery, etc.                       
Software: VisualStudio code.
   
       